fictional-character-personalities
…
# Add threshold to PCA to cover 50% of variance
pca_recipe <- recipe(~ ., data = pca_data) %>%
  update_role(character_code, new_role = "id") %>%
  step_normalize(all_predictors()) %>%
  step_pca(all_predictors(),
           threshold = 0.90)

# Run PCA
personality_pca <- prep(pca_recipe) %>%
  juice()

personality_pca

## # A tibble: 800 x 27
##    character_code    PC01  PC02   PC03    PC04    PC05   PC06   PC07   PC08
##    <fct>            <dbl> <dbl>  <dbl>   <dbl>   <dbl>  <dbl>  <dbl>  <dbl>
##  1 A/4            -1.51    9.74  -8.69 -0.0959 -4.24   -1.94   0.715 -3.06 
##  2 A/1            -3.25    1.72  -1.80  4.09    3.06   -2.70  -0.754 -1.49 
##  3 A/2            -6.52    7.45   6.75  5.46    0.0389  2.50  -3.27  -2.36 
##  4 A/3             1.17   -3.93  -6.08  2.29   -0.743   0.433 -3.67  -1.54 
##  5 A/6             3.34   -6.79   4.16  3.38    3.78   -1.70   0.568 -3.99 
##  6 A/5             7.28   11.4    4.33  4.60   -1.59    1.63   0.683 -0.235
##  7 AK/2           -5.99    5.92 -11.2  -1.08   -1.71   -2.62   1.08   0.364
##  8 AK/3            7.68   -1.82   3.16 -4.64    0.628  -3.35  -1.90   2.17 
##  9 AK/10           0.0180  1.69  -8.94 -1.88   -0.126   0.601  2.01   2.48 
## 10 AK/9            0.0505  3.92  -6.25 -3.89    0.951  -2.81   0.920  3.11 
## # ... with 790 more rows, and 18 more variables: PC09 <dbl>, PC10 <dbl>,
## #   PC11 <dbl>, PC12 <dbl>, PC13 <dbl>, PC14 <dbl>, PC15 <dbl>, PC16 <dbl>,
## #   PC17 <dbl>, PC18 <dbl>, PC19 <dbl>, PC20 <dbl>, PC21 <dbl>, PC22 <dbl>,
## #   PC23 <dbl>, PC24 <dbl>, PC25 <dbl>, PC26 <dbl>
…
